新北市,2303,1180,1123
台北市,1916,913,1003
桃園市,241,115,126
彰化縣,116,48,68
基隆市,80,42,38
台中市,66,31,35
宜蘭縣,51,25,26
高雄市,29,15,14
屏東縣,23,13,10
台南市,21,11,10
新竹市,15,10,5
南投縣,14,6,8
新竹縣,11,7,4
雲林縣,9,8,1
苗栗縣,7,5,2
花蓮縣,6,2,4
台東縣,3,1,2
嘉義市,2,2,0
嘉義縣,1,1,0
連江縣,1,0,1
