空值,是,10,F
空值,是,10,F
空值,是,10,M
空值,是,10,M
空值,是,11,F
空值,是,11,F
空值,是,11,M
空值,是,12,M
空值,是,12,M
空值,是,13,F
空值,是,13,F
空值,是,13,M
空值,是,14,F
空值,是,14,F
空值,是,14,M
空值,是,14,M
空值,是,16,F
空值,是,16,F
空值,是,16,M
空值,是,17,M
空值,是,18,M
空值,是,18,M
空值,是,19,F
空值,是,1,F
空值,是,1,F
空值,是,1,F
空值,是,1,F
空值,是,1,F
空值,是,1,F
空值,是,1,F
空值,是,1,F
空值,是,1,F
空值,是,1,F
空值,是,1,F
空值,是,1,F
空值,是,1,F
空值,是,1,F
空值,是,1,F
空值,是,1,F
空值,是,1,F
空值,是,1,F
空值,是,1,F
空值,是,1,F
空值,是,1,F
空值,是,1,F
空值,是,1,F
空值,是,1,F
空值,是,1,F
空值,是,1,F
空值,是,1,F
空值,是,1,F
空值,是,1,F
空值,是,1,F
空值,是,1,F
空值,是,1,F
空值,是,1,F
空值,是,1,F
空值,是,1,F
空值,是,1,F
空值,是,1,F
空值,是,1,F
空值,是,1,F
空值,是,1,F
空值,是,1,F
空值,是,1,F
空值,是,1,F
空值,是,1,F
空值,是,1,M
空值,是,1,M
空值,是,1,M
空值,是,1,M
空值,是,1,M
空值,是,1,M
空值,是,1,M
空值,是,1,M
空值,是,1,M
空值,是,1,M
空值,是,1,M
空值,是,1,M
空值,是,1,M
空值,是,1,M
空值,是,1,M
空值,是,1,M
空值,是,1,M
空值,是,1,M
空值,是,1,M
空值,是,1,M
空值,是,1,M
空值,是,1,M
空值,是,1,M
空值,是,1,M
空值,是,1,M
空值,是,1,M
空值,是,1,M
空值,是,1,M
空值,是,1,M
空值,是,1,M
空值,是,1,M
空值,是,1,M
空值,是,1,M
空值,是,1,M
空值,是,1,M
空值,是,1,M
空值,是,1,M
空值,是,1,M
空值,是,1,M
空值,是,1,M
空值,是,1,M
空值,是,1,M
空值,是,1,M
空值,是,1,M
空值,是,1,M
空值,是,1,M
空值,是,1,M
空值,是,1,M
空值,是,1,M
空值,是,1,M
空值,是,1,M
空值,是,1,M
空值,是,21,F
空值,是,22,F
空值,是,22,M
空值,是,24,F
空值,是,25,M
空值,是,29,M
空值,是,2,F
空值,是,2,F
空值,是,2,F
空值,是,2,F
空值,是,2,F
空值,是,2,F
空值,是,2,F
空值,是,2,F
空值,是,2,F
空值,是,2,F
空值,是,2,F
空值,是,2,F
空值,是,2,F
空值,是,2,F
空值,是,2,F
空值,是,2,F
空值,是,2,F
空值,是,2,F
空值,是,2,F
空值,是,2,F
空值,是,2,F
空值,是,2,F
空值,是,2,F
空值,是,2,F
空值,是,2,M
空值,是,2,M
空值,是,2,M
空值,是,2,M
空值,是,2,M
空值,是,2,M
空值,是,2,M
空值,是,2,M
空值,是,2,M
空值,是,2,M
空值,是,2,M
空值,是,2,M
空值,是,2,M
空值,是,2,M
空值,是,2,M
空值,是,2,M
空值,是,2,M
空值,是,2,M
空值,是,2,M
空值,是,2,M
空值,是,2,M
空值,是,3,F
空值,是,3,F
空值,是,3,F
空值,是,3,F
空值,是,3,F
空值,是,3,F
空值,是,3,F
空值,是,3,F
空值,是,3,M
空值,是,3,M
空值,是,3,M
空值,是,3,M
空值,是,3,M
空值,是,3,M
空值,是,3,M
空值,是,3,M
空值,是,3,M
空值,是,3,M
空值,是,3,M
空值,是,3,M
空值,是,4,F
空值,是,4,F
空值,是,4,F
空值,是,4,F
空值,是,4,F
空值,是,4,M
空值,是,4,M
空值,是,4,M
空值,是,4,M
空值,是,4,M
空值,是,50,F
空值,是,5,F
空值,是,5,F
空值,是,5,F
空值,是,5,F
空值,是,5,F
空值,是,5,F
空值,是,5,F
空值,是,5,F
空值,是,5,F
空值,是,5,F
空值,是,5,F
空值,是,5,M
空值,是,5,M
空值,是,5,M
空值,是,5,M
空值,是,5,M
空值,是,5,M
空值,是,5,M
空值,是,5,M
空值,是,5,M
空值,是,5,M
空值,是,5,M
空值,是,5,M
空值,是,6,F
空值,是,6,F
空值,是,6,M
空值,是,6,M
空值,是,6,M
空值,是,6,M
空值,是,6,M
空值,是,6,M
空值,是,7,F
空值,是,7,F
空值,是,7,F
空值,是,7,F
空值,是,7,F
空值,是,7,M
空值,是,7,M
空值,是,7,M
空值,是,7,M
空值,是,7,M
空值,是,7,M
空值,是,7,M
空值,是,7,M
空值,是,8,F
空值,是,8,F
空值,是,8,M
空值,是,8,M
空值,是,8,M
空值,是,8,M
空值,是,8,M
空值,是,9,F
空值,是,9,M
空值,是,9,M
空值,是,9,M
空值,是,9,M
空值,是,9,M
空值,是,9,M
空值,是,9,M
